<svg id="Group_23869" data-name="Group 23869" xmlns="http://www.w3.org/2000/svg" width="45.437" height="45.436" viewBox="0 0 45.437 45.436">
  <path id="arrow" d="M8.879,10.655a1.612,1.612,0,0,1-1.243-.533l-7.1-7.1a1.717,1.717,0,0,1,0-2.486,1.717,1.717,0,0,1,2.486,0l5.86,5.86,5.86-5.86a1.717,1.717,0,0,1,2.486,0,1.717,1.717,0,0,1,0,2.486l-7.1,7.1A1.612,1.612,0,0,1,8.879,10.655Z" transform="translate(13.839 17.63)" fill="#fff"/>
  <g id="Ellipse_5" data-name="Ellipse 5" transform="translate(0 0)" fill="none" stroke="#fff" stroke-width="4">
    <circle cx="22.718" cy="22.718" r="22.718" stroke="none"/>
    <circle cx="22.718" cy="22.718" r="20.718" fill="none"/>
  </g>
</svg>
