<svg xmlns="http://www.w3.org/2000/svg" xmlns:xlink="http://www.w3.org/1999/xlink" width="958" height="353" viewBox="0 0 958 353">
  <defs>
    <clipPath id="clip-path">
      <rect id="Rectangle_2213" data-name="Rectangle 2213" width="958" height="353" transform="translate(410)" fill="none"/>
    </clipPath>
    <linearGradient id="linear-gradient" x1="0.5" x2="0.5" y2="1" gradientUnits="objectBoundingBox">
      <stop offset="0" stop-color="#ff9423"/>
      <stop offset="0.001" stop-color="#ff9423"/>
      <stop offset="0.192" stop-color="#ff8e29"/>
      <stop offset="1" stop-color="#ef4326"/>
    </linearGradient>
  </defs>
  <g id="Mask_Group_5" data-name="Mask Group 5" transform="translate(-410)" clip-path="url(#clip-path)">
    <g id="Group_23947" data-name="Group 23947">
      <path id="Path_17447" data-name="Path 17447" d="M0,0H1800V271a82,82,0,0,1-82,82H82A82,82,0,0,1,0,271Z" fill="url(#linear-gradient)"/>
      <g id="Group_23707" data-name="Group 23707">
        <path id="Path_17447-2" data-name="Path 17447" d="M1639.072-7055.722l-793.524,92.144a129.467,129.467,0,0,1-141.6-101.828L696-7103h943.072Z" transform="translate(163.703 7077.486)" fill="#fff" opacity="0.05"/>
        <path id="Path_17448" data-name="Path 17448" d="M1599.527-6906.774l-590.769,60.659c-62.842,6.48-120.443-29.232-129.31-80.173L848.691-7103h738.634Z" transform="translate(215.69 7016.291)" fill="#ef4326" opacity="0.301"/>
      </g>
    </g>
  </g>
</svg>
