<svg xmlns="http://www.w3.org/2000/svg" xmlns:xlink="http://www.w3.org/1999/xlink" width="58.154" height="58.154" viewBox="0 0 58.154 58.154">
  <defs>
    <filter id="ICON" x="0" y="0" width="58.154" height="58.154" filterUnits="userSpaceOnUse">
      <feOffset dx="0.5" dy="0.866" input="SourceAlpha"/>
      <feGaussianBlur stdDeviation="1.5" result="blur"/>
      <feFlood flood-opacity="0.149"/>
      <feComposite operator="in" in2="blur"/>
      <feComposite in="SourceGraphic"/>
    </filter>
  </defs>
  <g id="Group_23597" data-name="Group 23597" transform="translate(4 3.634)">
    <g transform="matrix(1, 0, 0, 1, -4, -3.63)" filter="url(#ICON)">
      <path id="ICON-2" data-name="ICON" d="M7.2,41.955A24.577,24.577,0,1,1,41.954,7.2,24.577,24.577,0,1,1,7.2,41.955ZM9.374,9.349A21.52,21.52,0,1,0,39.808,39.783,21.52,21.52,0,1,0,9.374,9.349ZM30.143,32.636l-5.567-5.566L19.01,32.636a1.55,1.55,0,0,1-2.173-2.173L22.4,24.9,16.837,19.33a1.55,1.55,0,0,1,2.173-2.173l5.566,5.566,5.567-5.566a1.55,1.55,0,0,1,2.173,2.173L26.749,24.9l5.566,5.567a1.449,1.449,0,0,1-.136,2.037,1.628,1.628,0,0,1-1.142.493A1.248,1.248,0,0,1,30.143,32.636Z" transform="translate(4 3.63)" fill="#ef4326"/>
    </g>
  </g>
</svg>
