<svg xmlns="http://www.w3.org/2000/svg" width="26.655" height="24.803" viewBox="0 0 26.655 24.803">
  <g id="Group_23987" data-name="Group 23987" transform="translate(1 1)">
    <ellipse id="CIRCLE" cx="11.401" cy="11.402" rx="11.401" ry="11.402" fill="none" stroke="#ef4326" stroke-width="2"/>
    <path id="TICK" d="M393.03,444.6a2.392,2.392,0,0,1-3.278,0l-5.079-4.864a2.154,2.154,0,0,1,0-3.139,2.392,2.392,0,0,1,3.278,0l3.026,2.9a.6.6,0,0,0,.828,0L400,431.645a2.392,2.392,0,0,1,3.278,0,2.154,2.154,0,0,1,0,3.139Z" transform="translate(-378.302 -428.152)" fill="#fdc400"/>
  </g>
</svg>
