<svg xmlns="http://www.w3.org/2000/svg" xmlns:xlink="http://www.w3.org/1999/xlink" width="115.815" height="109.85" viewBox="0 0 115.815 109.85">
  <defs>
    <linearGradient id="linear-gradient" x1="0.5" x2="0.5" y2="1" gradientUnits="objectBoundingBox">
      <stop offset="0" stop-color="#ff9423"/>
      <stop offset="0.001" stop-color="#ff9423"/>
      <stop offset="0.192" stop-color="#ff8e29"/>
      <stop offset="0.476" stop-color="#ff7f3a"/>
      <stop offset="0.674" stop-color="#ef4326"/>
      <stop offset="1" stop-color="#ef4326"/>
    </linearGradient>
  </defs>
  <path id="Path_17617" data-name="Path 17617" d="M2727.386,1675.624c-14.677-.592-27.608,4.45-38.426,14.393a53.681,53.681,0,0,0-17.5,35.006c-.231,2.214.713,3.492,2.507,3.629s2.937-1.019,3.194-3.108c2.1-17.125,10.724-29.888,25.727-38.364.468-.264.982-.445,1.626-.733a73.309,73.309,0,0,0,13.091,39.109c-6.165,6.488-23.417,14.66-31.852,15.106-.248-.425-.5-.88-.774-1.324-4.123-6.7-14.428-6.577-18.143.241a9.956,9.956,0,0,0,.587,11.164,9.75,9.75,0,0,0,9.895,4.263,9.949,9.949,0,0,0,8.515-7.44,1.642,1.642,0,0,1,1.516-1.4,71.879,71.879,0,0,0,17.044-5.509,76.211,76.211,0,0,0,16.467-10.5c1.452,1.6,2.826,3.184,4.281,4.69a2.06,2.06,0,0,1,.522,2.079,15.3,15.3,0,0,0-.252,5.429,10.309,10.309,0,0,0,15.624,6.529c.492-.3,1.241-.723,1.635-.552,2.1.919,4.133,2.009,6.207,3.05a2.159,2.159,0,0,1-.12.478,84.482,84.482,0,0,1-23.151,27.378,2.8,2.8,0,0,1-1.712.5,48.644,48.644,0,0,1-23.681-7.25,50.36,50.36,0,0,1-12.961-11.654,5.778,5.778,0,0,0-2.256-1.837,2.4,2.4,0,0,0-3,1.124,3.028,3.028,0,0,0,.452,3.761c9.886,12.529,22.692,19.851,38.626,21.281a53.1,53.1,0,0,0,42.525-14.566c17.75-16.522,22.757-42.191,11.96-63.91C2765.772,1687.014,2749.4,1676.511,2727.386,1675.624Zm-51.51,73.828a4.739,4.739,0,1,1,4.753-4.686A4.752,4.752,0,0,1,2675.876,1749.451Zm45.9-27.76a67.779,67.779,0,0,1-8.1-16.142,69.986,69.986,0,0,1-3.67-20.213c-.033-.841.04-1.421,1.066-1.746a48.542,48.542,0,0,1,29.159-.288,2.492,2.492,0,0,1,.377.215A67.83,67.83,0,0,1,2721.777,1721.691Zm13.63,23.021a4.742,4.742,0,1,1,4.927-4.509A4.771,4.771,0,0,1,2735.408,1744.712Zm.017,34.215c3.568-4.117,7.258-7.969,10.466-12.187s5.916-8.784,8.886-13.261l13.15,3.073A49.747,49.747,0,0,1,2735.425,1778.927Zm35.944-29.036c-.185.413-.793.989-1.114.936-4.387-.728-8.758-1.553-13.118-2.351,1.582-4.511,3.28-8.582,4.421-12.8,1.463-5.413,2.546-10.934,3.624-16.441a4.245,4.245,0,0,0-.767-3.151,3.549,3.549,0,0,0-2.8-.705c-1.255.169-1.763,1.32-2.007,2.542-.933,4.68-1.662,9.421-2.92,14.014-1.311,4.784-3.146,9.425-4.839,14.384-2.149-1.063-3.942-1.9-5.666-2.855a1.519,1.519,0,0,1-.4-1.3,10.017,10.017,0,0,0-4.05-10.565c-3.473-2.561-7.267-2.715-11.164-.789a1.7,1.7,0,0,1-1.558-.226c-1.331-1.337-2.538-2.8-3.873-4.308a74.094,74.094,0,0,0,21-40.875c2.067,1.124,4.1,2.048,5.941,3.259,15.7,10.314,23.524,24.9,23.272,43.68A44.26,44.26,0,0,1,2771.369,1749.891Z" transform="translate(-2665.405 -1675.577)" fill="url(#linear-gradient)"/>
</svg>
