<svg xmlns="http://www.w3.org/2000/svg" xmlns:xlink="http://www.w3.org/1999/xlink" width="107.414" height="107.425" viewBox="0 0 107.414 107.425">
  <defs>
    <linearGradient id="linear-gradient" x1="0.5" x2="0.5" y2="1" gradientUnits="objectBoundingBox">
      <stop offset="0" stop-color="#ff9423"/>
      <stop offset="0.001" stop-color="#ff9423"/>
      <stop offset="0.192" stop-color="#ff8e29"/>
      <stop offset="0.476" stop-color="#ff7f3a"/>
      <stop offset="0.674" stop-color="#ef4326"/>
      <stop offset="1" stop-color="#ef4326"/>
    </linearGradient>
  </defs>
  <g id="Group_23950" data-name="Group 23950" transform="translate(-1503.772 -3544.238)">
    <path id="Path_17628" data-name="Path 17628" d="M853.164,272.841c-.565,0-.567,0-.567.568q0,5.669,0,11.339,0,2.874,0,5.749t-.008,5.749c0,.382.11.506.495.5.994-.024,1.989-.007,2.984-.008.525,0,.527,0,.527-.528q0-4.177,0-8.355,0-7.261.007-14.521c0-.381-.11-.506-.494-.5C855.127,272.857,854.146,272.84,853.164,272.841Z" transform="translate(722.779 3313.161)" fill="url(#linear-gradient)"/>
    <path id="Path_17621" data-name="Path 17621" d="M598.288,498.058c-.408,0-.815-.005-1.223,0,.408,0,.815,0,1.223,0s.815-.006,1.223,0C599.1,498.052,598.7,498.058,598.288,498.058Z" transform="translate(951.192 3111.837)" fill="url(#linear-gradient)"/>
    <path id="Path_17622" data-name="Path 17622" d="M539.062,404.125c-.547,0-1.094-.005-1.641,0,.547,0,1.094,0,1.641,0,.527,0,1.054-.006,1.581,0C540.116,404.118,539.589,404.125,539.062,404.125Z" transform="translate(1004.508 3195.803)" fill="url(#linear-gradient)"/>
    <path id="Path_17623" data-name="Path 17623" d="M852.66,278.264q0,5.669,0,11.338,0,2.874,0,5.749,0-2.874,0-5.749Q852.66,283.933,852.66,278.264Z" transform="translate(722.717 3308.306)" fill="url(#linear-gradient)"/>
    <path id="Path_17624" data-name="Path 17624" d="M279.38-76.548c-2.04-.333-4.078-.679-6.118-1.009a2.936,2.936,0,0,1-2.5-2.153A39.193,39.193,0,0,0,268.3-85.7a3.036,3.036,0,0,1,.294-3.43q1.8-2.456,3.547-4.945a6.87,6.87,0,0,0-.619-8.808c-1.268-1.335-2.585-2.626-3.907-3.908a6.894,6.894,0,0,0-9.211-.645q-2.4,1.736-4.811,3.461a2.843,2.843,0,0,1-3.075.35,52.1,52.1,0,0,0-6.457-2.687,2.779,2.779,0,0,1-1.92-2.292c-.345-1.97-.655-3.947-.973-5.923a6.948,6.948,0,0,0-4.283-5.613,8.586,8.586,0,0,0-3.469-.562c-1.577-.006-3.154.04-4.731.064a6.921,6.921,0,0,0-6.707,5.8c-.328,2.027-.676,4.051-1,6.079a3.009,3.009,0,0,1-2.235,2.57,34.624,34.624,0,0,0-5.731,2.356,3.227,3.227,0,0,1-3.746-.306c-1.562-1.165-3.156-2.288-4.747-3.414a6.866,6.866,0,0,0-8.93.637c-1.323,1.262-2.609,2.565-3.88,3.879a6.9,6.9,0,0,0-.651,9.12q1.739,2.424,3.477,4.849a2.977,2.977,0,0,1,.27,3.327,41.206,41.206,0,0,0-2.516,6.053,2.919,2.919,0,0,1-2.452,2.108q-2.92.49-5.843.964a6.925,6.925,0,0,0-5.73,4.627,8.683,8.683,0,0,0-.432,3.095c-.007,1.577.043,3.154.061,4.731a6.872,6.872,0,0,0,5.508,6.66c2.029.389,4.071.719,6.116,1.019a3.15,3.15,0,0,1,2.833,2.3,34.306,34.306,0,0,0,2.368,5.769,3.144,3.144,0,0,1-.272,3.607c-1.217,1.656-2.407,3.331-3.593,5.01a6.934,6.934,0,0,0,.684,8.684q1.944,1.992,3.937,3.935a6.9,6.9,0,0,0,9.15.66q2.438-1.753,4.878-3.5a2.984,2.984,0,0,1,3.194-.293c.288.134.561.3.855.424,1.766.721,3.527,1.454,5.307,2.138a3,3,0,0,1,2.076,2.355c.348,1.97.666,3.945.971,5.922a6.87,6.87,0,0,0,5.259,5.921,14.037,14.037,0,0,0,2.959.273c1.417.027,2.836-.044,4.254-.061a6.874,6.874,0,0,0,6.636-5.441c.424-2.157.743-4.335,1.1-6.5a2.911,2.911,0,0,1,2.13-2.472,41.551,41.551,0,0,0,6.1-2.512,2.915,2.915,0,0,1,3.193.239q2.367,1.682,4.713,3.392a6.981,6.981,0,0,0,3.81,1.546,7.219,7.219,0,0,0,5.4-1.932q1.99-1.917,3.908-3.908A6.915,6.915,0,0,0,272-40.086c-1.192-1.658-2.385-3.315-3.565-4.981a2.723,2.723,0,0,1-.288-2.9,54.523,54.523,0,0,0,2.712-6.533,2.75,2.75,0,0,1,2.275-1.884c1.958-.339,3.918-.667,5.882-.97a7.063,7.063,0,0,0,5.089-3.191,7.67,7.67,0,0,0,1.129-4.323c0-1.643-.041-3.287-.059-4.93A6.928,6.928,0,0,0,279.38-76.548Zm1.807,12.254a2.928,2.928,0,0,1-2.59,2.95c-2.093.339-4.192.641-6.273,1.044a6.479,6.479,0,0,0-5.144,4.269c-.838,2.281-1.827,4.488-2.8,6.712a6.373,6.373,0,0,0,.657,6.365c1.226,1.827,2.557,3.583,3.822,5.384a2.874,2.874,0,0,1-.135,3.579,13.768,13.768,0,0,1-1.016,1.118c-.968.964-1.94,1.923-2.928,2.866a2.947,2.947,0,0,1-3.984.271c-1.63-1.163-3.24-2.354-4.879-3.5a6.836,6.836,0,0,0-7.435-.58,48.046,48.046,0,0,1-5.661,2.323,6.77,6.77,0,0,0-4.688,5.62c-.341,1.985-.644,3.976-.978,5.962a2.939,2.939,0,0,1-3.013,2.572q-2.643.023-5.286,0a2.94,2.94,0,0,1-2.971-2.615c-.33-2.067-.645-4.137-1.036-6.193a6.67,6.67,0,0,0-4.592-5.336,58.36,58.36,0,0,1-5.905-2.458,6.636,6.636,0,0,0-6.981.537c-1.666,1.133-3.283,2.338-4.921,3.513a3,3,0,0,1-4.35-.3q-1.791-1.752-3.544-3.542a2.933,2.933,0,0,1-.3-3.948c1.162-1.63,2.336-3.252,3.5-4.883a6.784,6.784,0,0,0,.695-7.286,61.728,61.728,0,0,1-2.448-5.953,6.722,6.722,0,0,0-5.535-4.574c-1.971-.345-3.948-.65-5.923-.974a2.965,2.965,0,0,1-2.662-3.1c-.012-1.722-.019-3.445,0-5.167a2.946,2.946,0,0,1,2.614-3.014c2.079-.336,4.165-.643,6.233-1.039a6.527,6.527,0,0,0,5.176-4.29c.817-2.189,1.716-4.332,2.69-6.455a6.611,6.611,0,0,0-.745-6.893c-1.132-1.619-2.3-3.214-3.453-4.817a2.968,2.968,0,0,1,.282-4.226q1.777-1.822,3.6-3.6a2.933,2.933,0,0,1,3.98-.293c1.621,1.152,3.225,2.328,4.847,3.48a6.782,6.782,0,0,0,7.285.7,64.832,64.832,0,0,1,6.027-2.479,6.7,6.7,0,0,0,4.512-5.5c.352-2,.647-4,.989-6a2.926,2.926,0,0,1,3.072-2.592c1.735-.014,3.471-.019,5.207,0a2.922,2.922,0,0,1,2.984,2.594c.34,2.079.645,4.166,1.042,6.234a6.632,6.632,0,0,0,4.5,5.276c2.075.746,4.094,1.6,6.088,2.538a6.681,6.681,0,0,0,7.042-.671c1.611-1.12,3.194-2.281,4.785-3.429a2.976,2.976,0,0,1,4.286.277c1.245,1.21,2.465,2.446,3.684,3.683a2.8,2.8,0,0,1,.808,2.059,2.963,2.963,0,0,1-.637,1.839q-1.721,2.388-3.43,4.784a7.013,7.013,0,0,0-.617,7.614,42.656,42.656,0,0,1,2.081,5.027A7.22,7.22,0,0,0,273.1-73.5c1.9.277,3.8.6,5.687.942a2.859,2.859,0,0,1,2.4,2.861Q281.211-67,281.187-64.295Z" transform="translate(1325.947 3664.937)" fill="url(#linear-gradient)"/>
    <path id="Path_17625" data-name="Path 17625" d="M399.443,66.962a33.793,33.793,0,1,0,33.523,33.983A33.813,33.813,0,0,0,399.443,66.962Zm29.592,34.352A29.867,29.867,0,1,1,399.623,70.9,29.9,29.9,0,0,1,429.035,101.315Z" transform="translate(1158.308 3497.188)" fill="url(#linear-gradient)"/>
    <path id="Path_17626" data-name="Path 17626" d="M493.661,294.978q-.664-4.841-1.328-9.681c-.408-2.965-.834-5.927-1.222-8.894a3.916,3.916,0,0,0-3.343-3.54,21.542,21.542,0,0,0-3.016-.07,3.979,3.979,0,0,0-3.988,3.454c-.354,2.5-.7,5.01-1.039,7.516q-.855,6.238-1.714,12.475c-.047.334.01.455.363.45,1.074-.015,2.148-.013,3.221,0,.292,0,.415-.079.455-.392.221-1.72.471-3.437.7-5.156.036-.27.11-.433.435-.43q2.744.018,5.488,0c.284,0,.394.106.431.385.23,1.746.479,3.489.708,5.235.035.269.145.362.408.356q.2,0,.407-.006c.408,0,.815,0,1.223,0s.815-.006,1.223,0q.2,0,.407.007c.307.008.439-.071.368-.412C493.763,295.848,493.721,295.411,493.661,294.978Zm-5.611-8.257q-.263-.006-.527-.008c-.527,0-1.054,0-1.581,0-.547,0-1.094-.005-1.641,0q-.273,0-.547.006c-.312.006-.376-.108-.334-.407q.635-4.524,1.241-9.053c.048-.362.185-.5.557-.479a12.1,12.1,0,0,0,1.471,0c.356-.022.457.145.5.452.205,1.536.422,3.07.632,4.605.2,1.483.394,2.967.615,4.447C488.489,286.64,488.383,286.729,488.051,286.721Z" transform="translate(1057.627 3313.212)" fill="url(#linear-gradient)"/>
    <path id="Path_17627" data-name="Path 17627" d="M675.075,272.9q-4.714-.008-9.428,0c-.542,0-.543,0-.543.551q0,5.688,0,11.377c0,3.832,0,7.664-.007,11.5,0,.364.109.483.474.475,1.007-.021,2.016-.025,3.023,0,.4.011.519-.116.516-.517-.017-2.32,0-4.641-.016-6.961,0-.379.1-.5.49-.5q2.8.027,5.609,0a5.971,5.971,0,0,0,5.843-5.855q.015-2.068,0-4.137A5.96,5.96,0,0,0,675.075,272.9Zm1.964,9.869a2,2,0,0,1-2.057,2.064c-1.817.007-3.634,0-5.451.008-.324,0-.44-.094-.435-.428q.006-.442.008-.885c0-.885,0-1.77,0-2.656s.006-1.751,0-2.626q0-.438-.008-.875c-.005-.351.083-.487.463-.483,1.8.018,3.607,0,5.411.01a1.993,1.993,0,0,1,2.07,2.051Q677.05,280.859,677.039,282.769Z" transform="translate(890.379 3313.104)" fill="url(#linear-gradient)"/>
  </g>
</svg>
