<svg xmlns="http://www.w3.org/2000/svg" xmlns:xlink="http://www.w3.org/1999/xlink" width="151.467" height="110.796" viewBox="0 0 151.467 110.796">
  <defs>
    <linearGradient id="linear-gradient" x1="0.5" x2="0.5" y2="1" gradientUnits="objectBoundingBox">
      <stop offset="0" stop-color="#ff9423"/>
      <stop offset="0.001" stop-color="#ff9423"/>
      <stop offset="0.192" stop-color="#ff8e29"/>
      <stop offset="0.476" stop-color="#ff7f3a"/>
      <stop offset="0.674" stop-color="#ef4326"/>
      <stop offset="1" stop-color="#ef4326"/>
    </linearGradient>
  </defs>
  <g id="Group_23949" data-name="Group 23949" transform="translate(-1101.001 -3651)">
    <path id="Path_17620" data-name="Path 17620" d="M2769.547,1714.21a2.2,2.2,0,0,0-2.185-2.2h-.067a19.255,19.255,0,0,0-10.1,3.252,22.766,22.766,0,0,0-7.721,8.129h0a23.176,23.176,0,0,0-3.01,11.134,23.919,23.919,0,0,0,3.766,12.459l-3,2.71a2.2,2.2,0,0,0,1.478,3.836h14.9a2.2,2.2,0,0,0,2.2-2.2v-14.989a2.2,2.2,0,0,0-3.769-1.55l-3.083,3.117a9.574,9.574,0,0,1-.6-3.3,10.148,10.148,0,0,1,.453-2.947,10.853,10.853,0,0,1,3.26-5.244,12.408,12.408,0,0,1,5.726-2.641,2.2,2.2,0,0,0,1.757-2.157Zm-10.362,8.87a15.27,15.27,0,0,0-4.6,7.3,14.531,14.531,0,0,0-.641,4.221,14.96,14.96,0,0,0,2.583,8.215,2.2,2.2,0,0,0,3.412.349l1.459-1.475v7.428h-6.975l.14-.127a2.2,2.2,0,0,0,.34-2.878c-2.73-3.995-4.038-7.806-4.04-11.595a18.756,18.756,0,0,1,2.477-9.033l-1.935-1.051,1.935,1.051a18.4,18.4,0,0,1,6.222-6.518,16.571,16.571,0,0,1,5.576-2.326v3.275A16.021,16.021,0,0,0,2759.185,1723.08Z" transform="translate(-1591.875 1998.739)" fill="url(#linear-gradient)"/>
    <path id="Path_17618" data-name="Path 17618" d="M2823.262,1698.094c3.042-8.659,3.14-17.249-.383-25.7a34.149,34.149,0,0,0-17.829-18.482,33.285,33.285,0,0,0-22.094-2.255c-12.361,2.944-20.575,10.759-25.319,22.348-10.6-5.639-13.087-6.268-20.758-5.331-10.729,1.309-20.431,10.953-21.626,21.733-.462,4.169-.482,8.388-.718,12.864a24.065,24.065,0,0,0-16.174,6.813c-4.492,4.448-7.2,9.95-6.843,16.147.92,16.131,10.7,23.19,26.045,23.784.065.689.134,1.17.152,1.651.242,6.524,3.6,9.779,10.146,9.788,7.391.011,5.037-.085,12.426.055,2.272.042,2.467-.987,2.461-2.789,0-1.783-.148-2.849-2.445-2.8-7.063.145-4.385.053-11.451.052-.893,0-1.794.053-2.679-.035-2.223-.219-3.037-1.64-2.985-4.431.044-2.391,1.728-1.7,2.935-1.711,7.8-.048,5.848-.076,13.645.01,2.032.023,3.046-.245,3.043-2.72,0-2.524-.967-2.878-3.154-2.861-11.7.094-13.645.064-25.341.037a17.708,17.708,0,0,1,.086-35.412c3-.014,6.016-.122,9.013.038,2.069.11,2.887-.416,2.814-2.665-.066-2.042-.311-3.34-2.761-2.927a4,4,0,0,1-1.929-.06c-.477-.171-1.145-.752-1.147-1.154-.021-3.73-.375-7.539.24-11.177a20.575,20.575,0,0,1,40.623.286c.482,2.953,1.7,3.337,4.043,3.038.47-.059.945-.082,1.558-.135.222-4.335-1.168-8.8-3.681-13.421a5.822,5.822,0,0,1-.464-4.041,29.394,29.394,0,1,1,55.973,17.977c-.672,2.066-1.552,3.248-3.908,2.9-1.192-.176-2.442.063-3.648-.062-2.009-.211-2.954.3-2.845,2.61.093,1.985.208,3.275,2.732,2.989a51.668,51.668,0,0,1,6.086-.043,20.633,20.633,0,0,1-.127,41.266c-10.8.014-11.859.056-22.661-.042-2.1-.018-2.606.716-2.572,2.67.034,1.876.15,2.979,2.563,2.933,7.876-.15,6.008-.06,13.887-.05.947,0,1.893.083,2.78.125.873,4.872-.087,6.068-4.637,6.071-7.391,0-5.036.064-12.426-.038-2.1-.029-2.212,1.063-2.111,2.6.091,1.379-.479,2.988,1.99,2.959,7.959-.094,6.174.05,14.132-.071,5.124-.077,8.6-3.688,8.863-8.831.045-.871.088-1.743.1-2.008,4.466-1.455,8.659-2.459,12.529-4.184,4.063-1.808,7.1-5.051,9.537-8.818a23.478,23.478,0,0,0,3.986-12.115C2843.345,1711.525,2836.18,1702.821,2823.262,1698.094Z" transform="translate(-1590.486 2000.287)" fill="url(#linear-gradient)"/>
    <path id="Path_17619" data-name="Path 17619" d="M2788.936,1722.282l2.891-2.784a2.2,2.2,0,0,0-1.528-3.789h-14.767a2.2,2.2,0,0,0-2.2,2.2v14.972a2.2,2.2,0,0,0,3.778,1.54c1.068-1.095,2.063-2.112,3.038-3.11a9.77,9.77,0,0,1,.605,3.327,10.311,10.311,0,0,1-.581,3.343,10.7,10.7,0,0,1-3.29,4.944,12.653,12.653,0,0,1-5.572,2.514,2.2,2.2,0,0,0-1.75,2.155v7.545a2.2,2.2,0,0,0,2.49,2.185,24.746,24.746,0,0,0,10.16-3.516,21.727,21.727,0,0,0,7.312-7.819,22.855,22.855,0,0,0,3.161-11.321A23.773,23.773,0,0,0,2788.936,1722.282Zm-3.252,21.545a17.3,17.3,0,0,1-5.836,6.266,19,19,0,0,1-5.884,2.407v-3.207a16.219,16.219,0,0,0,5.725-2.971,15.117,15.117,0,0,0,4.649-6.914,14.672,14.672,0,0,0,.818-4.768,15.362,15.362,0,0,0-2.557-8.256,2.2,2.2,0,0,0-3.439-.365l-1.426,1.459v-7.365h7.1l-.259.25a2.2,2.2,0,0,0-.29,2.832,20.246,20.246,0,0,1,3.99,11.476A18.442,18.442,0,0,1,2785.683,1743.826Z" transform="translate(-1592.459 1998.646)" fill="url(#linear-gradient)"/>
  </g>
</svg>
