<svg xmlns="http://www.w3.org/2000/svg" xmlns:xlink="http://www.w3.org/1999/xlink" width="107.951" height="107.957" viewBox="0 0 107.951 107.957">
  <defs>
    <linearGradient id="linear-gradient" x1="0.5" x2="0.5" y2="1" gradientUnits="objectBoundingBox">
      <stop offset="0" stop-color="#ff9423"/>
      <stop offset="0.001" stop-color="#ff9423"/>
      <stop offset="0.192" stop-color="#ff8e29"/>
      <stop offset="0.476" stop-color="#ff7f3a"/>
      <stop offset="0.674" stop-color="#ef4326"/>
      <stop offset="1" stop-color="#ef4326"/>
    </linearGradient>
  </defs>
  <g id="Group_3169" data-name="Group 3169" transform="translate(0 0)">
    <path id="Path_2797" data-name="Path 2797" d="M2571.21,1857.363c-.015,1.438,0,2.875,0,4.312,0,1.4-.009,2.8,0,4.207-.01-1.4,0-2.8,0-4.207C2571.206,1860.238,2571.195,1858.8,2571.21,1857.363Z" transform="translate(-2553.333 -1805.467)" fill="url(#linear-gradient)"/>
    <path id="Path_2798" data-name="Path 2798" d="M2647.143,1785.032c-.423-.135-.843-.28-1.265-.422h-91.536c-.423.143-.845.29-1.269.426a9.18,9.18,0,0,0-6.454,6.511,14.417,14.417,0,0,0-.447,3.846q-.04,28.146-.021,56.292a8.97,8.97,0,0,0,7.232,9.107,15.572,15.572,0,0,0,3.342.223q38.581.019,77.162.012c3.963,0,7.931.118,11.885-.079a8.615,8.615,0,0,0,7.923-6.515c.126-.429.271-.852.407-1.277v-60.11c-.132-.424-.274-.845-.4-1.273A9.369,9.369,0,0,0,2647.143,1785.032Zm2.431,66.752c0,2.965-1.857,4.748-4.838,4.748h-44.6v.013h-44.814a4.408,4.408,0,0,1-4.627-4.739q-.015-18.77-.007-37.539c0-6.5.106-13.007-.048-19.506a5.507,5.507,0,0,1,5.722-5.707c23.022.068,46.045.037,69.067.037,6.01,0,12.021-.041,18.031.031a8.317,8.317,0,0,1,3.621.754,4.687,4.687,0,0,1,2.51,4.441Q2649.571,1823.049,2649.574,1851.784Z" transform="translate(-2546.152 -1784.61)" fill="url(#linear-gradient)"/>
    <path id="Path_2799" data-name="Path 2799" d="M2632.846,1914.451c-2.738-5.1-7.039-7.546-12.824-7.42-1.75.038-3.5.006-5.406.006,0-2.253.014-4.355-.005-6.458a2.273,2.273,0,1,0-4.524.011c-.016.772,0,1.545,0,2.318v4.13c-2.131,0-4.094-.014-6.057,0-4.677.04-8.5,1.828-11.083,5.784-1.393,2.136-2.446,4.49-3.7,6.717a2.994,2.994,0,0,0,.376,3.609,4.7,4.7,0,0,0,3.907,1.915q18.234-.027,36.467-.009c.317,0,.633,0,.948.024a4.667,4.667,0,0,0,4.486-2.373,2.429,2.429,0,0,0,.257-2.5C2634.746,1918.284,2633.857,1916.335,2632.846,1914.451Zm-38.9,6.041a3.7,3.7,0,0,1,.222-.688c.92-1.612,1.748-3.29,2.81-4.8a7.419,7.419,0,0,1,6.148-3.363c6.179-.069,12.36-.056,18.539,0a7.366,7.366,0,0,1,5.023,2.139,18.369,18.369,0,0,1,3.987,6.716Z" transform="translate(-2558.379 -1817.141)" fill="url(#linear-gradient)"/>
    <path id="Path_2800" data-name="Path 2800" d="M2654.47,1807.026a13.861,13.861,0,0,0-13.728,13.231c-.115,6.975,6.123,13.473,13.052,13.593a13.786,13.786,0,0,0,13.789-13.245C2667.763,1813.921,2661.807,1807.143,2654.47,1807.026Zm-3.143,21.941c-4.611-1.35-7.093-6.224-5.723-11.24a8.69,8.69,0,0,1,10.6-5.955c-.123.282-.221.56-.359.817-1.16,2.165-2.34,4.319-3.489,6.49-.979,1.85-.178,3.346,1.908,3.619l8.2,1.072C2661.076,1828.1,2656.106,1830.367,2651.327,1828.968Zm6.383-10.355c.881-1.64,1.713-3.187,2.619-4.871a8.691,8.691,0,0,1,2.69,5.538Z" transform="translate(-2573.269 -1791.036)" fill="url(#linear-gradient)"/>
    <path id="Path_2801" data-name="Path 2801" d="M2624.867,1810.062c-1.608-.831-3.271.356-3.276,2.365-.015,6.638-.006,13.275-.006,19.913h0q0,9.744,0,19.49a5.393,5.393,0,0,0,.114,1.251,2.217,2.217,0,0,0,4.295.007,6.993,6.993,0,0,0,.12-1.566q.011-10.641,0-21.282,0-8.85,0-17.7A2.476,2.476,0,0,0,2624.867,1810.062Z" transform="translate(-2567.776 -1791.83)" fill="url(#linear-gradient)"/>
    <path id="Path_2802" data-name="Path 2802" d="M2613.457,1830.547a2.267,2.267,0,0,0-2.368-1.823,2.243,2.243,0,0,0-2.056,2.371c-.016,4.811-.011,9.62-.012,14.431,0,4.073-.01,8.146.006,12.219a2.226,2.226,0,0,0,2.816,2.363,2.276,2.276,0,0,0,1.657-2.492q.011-6.584,0-13.167,0-6.426,0-12.851A5.968,5.968,0,0,0,2613.457,1830.547Z" transform="translate(-2564.174 -1797.254)" fill="url(#linear-gradient)"/>
    <path id="Path_2803" data-name="Path 2803" d="M2664.753,1853.938q-10.739-.01-21.477,0a4.757,4.757,0,0,0-1.045.091,2.187,2.187,0,0,0-1.628,2.653,2.282,2.282,0,0,0,2.519,1.765c3.649.009,7.3,0,10.949,0q2.737,0,5.475,0t5.474-.01a2.253,2.253,0,0,0,2.445-2.6C2667.3,1854.608,2666.374,1853.94,2664.753,1853.938Z" transform="translate(-2573.211 -1804.484)" fill="url(#linear-gradient)"/>
    <path id="Path_2804" data-name="Path 2804" d="M2586.046,1835.063a2.173,2.173,0,0,0-2.238,2.289c-.025,7.451-.014,14.9-.009,22.355a2.161,2.161,0,0,0,1.419,2.146c1.566.635,3.074-.51,3.083-2.353.019-3.62.006-7.24.005-10.86,0-3.726.016-7.451-.008-11.177A2.226,2.226,0,0,0,2586.046,1835.063Z" transform="translate(-2556.943 -1799.074)" fill="url(#linear-gradient)"/>
    <path id="Path_2805" data-name="Path 2805" d="M2664.852,1866.535q-10.792-.008-21.583,0c-1.694,0-2.732.848-2.754,2.23s1.025,2.258,2.706,2.263c3.615.008,7.229,0,10.844,0,3.649,0,7.3.013,10.949-.006a2.184,2.184,0,0,0,2.457-2.365C2667.406,1867.341,2666.428,1866.535,2664.852,1866.535Z" transform="translate(-2573.204 -1808.095)" fill="url(#linear-gradient)"/>
    <path id="Path_2806" data-name="Path 2806" d="M2600.867,1843.7a2.2,2.2,0,0,0-2.589-2.33,2.308,2.308,0,0,0-1.891,2.529q-.011,8.59,0,17.18c0,1.695.849,2.712,2.249,2.719s2.242-1,2.244-2.708q.005-4.269,0-8.537h0C2600.876,1849.606,2600.9,1846.654,2600.867,1843.7Z" transform="translate(-2560.552 -1800.875)" fill="url(#linear-gradient)"/>
    <path id="Path_2807" data-name="Path 2807" d="M2573.408,1853.959a2.225,2.225,0,0,0-2.2,2.428c-.015,1.437,0,2.875,0,4.312,0,1.4-.009,2.8,0,4.207a2.245,2.245,0,1,0,4.463.037q.016-4.26,0-8.519A2.222,2.222,0,0,0,2573.408,1853.959Z" transform="translate(-2553.333 -1804.491)" fill="url(#linear-gradient)"/>
  </g>
</svg>
