<svg id="Group_23874" data-name="Group 23874" xmlns="http://www.w3.org/2000/svg" width="209.23" height="54.443" viewBox="0 0 209.23 54.443">
  <g id="Group_1097" data-name="Group 1097" transform="translate(0 16.702)">
    <path id="Path_343" data-name="Path 343" d="M22.419,137.244,8.775,120.326h-.1v16.918H0V100.5H8.658v14.94h.15L21.937,100.5h11.1L17.217,117.418l16.768,19.826Z" transform="translate(0 -100.5)"/>
    <path id="Path_344" data-name="Path 344" d="M222,137.244V100.5h24.7v7.478H230.559v6.947h15.256v7.113H230.559v7.628h17.067v7.578Z" transform="translate(-185.106 -100.5)"/>
    <path id="Path_345" data-name="Path 345" d="M405.185,121.672v15.572H396.31V121.672L382.5,100.5h10.736l7.844,13.594,7.844-13.594h10.387Z" transform="translate(-318.933 -100.5)"/>
    <path id="Path_346" data-name="Path 346" d="M640.16,137.244l-7.977-14.575h-3.025v14.575H620.5V100.5h14.01a24.251,24.251,0,0,1,5.168.548,13.637,13.637,0,0,1,4.52,1.845,9.712,9.712,0,0,1,3.191,3.423,10.691,10.691,0,0,1,1.2,5.3,9.79,9.79,0,0,1-2.027,6.282,11.1,11.1,0,0,1-5.6,3.64l9.606,15.721h-10.4Zm-.366-25.477a3.627,3.627,0,0,0-.548-2.094,3.786,3.786,0,0,0-1.413-1.246,5.946,5.946,0,0,0-1.928-.6,14.859,14.859,0,0,0-2.061-.15h-4.753v8.559h4.221a14.934,14.934,0,0,0,2.244-.183,6.757,6.757,0,0,0,2.077-.648,4.028,4.028,0,0,0,1.546-1.346A3.931,3.931,0,0,0,639.795,111.768Z" transform="translate(-517.38 -100.5)"/>
    <path id="Path_347" data-name="Path 347" d="M1081.25,137.244l-14.791-24.031h-.149l.2,24.031H1057.9V100.5h10.121l14.741,23.981h.149l-.2-23.981h8.609v36.744Z" transform="translate(-882.09 -100.5)"/>
  </g>
  <path id="Path_348" data-name="Path 348" d="M855.679,129.433a13.283,13.283,0,0,1-3.191,4.67,14.852,14.852,0,0,1-5,3.041,19.944,19.944,0,0,1-13.046,0A14.389,14.389,0,0,1,829.5,134.1a13.08,13.08,0,0,1-3.108-4.67,16.065,16.065,0,0,1-1.1-6.049V100.5h8.824v22.153a10.7,10.7,0,0,0,.382,2.858,7.442,7.442,0,0,0,1.2,2.41,5.358,5.358,0,0,0,2.127,1.678,7.692,7.692,0,0,0,3.191.615,7.437,7.437,0,0,0,3.191-.615,6.061,6.061,0,0,0,2.16-1.678,6.975,6.975,0,0,0,1.2-2.41,10.609,10.609,0,0,0,.366-2.858V100.5h8.874v22.884A16.072,16.072,0,0,1,855.679,129.433Z" transform="translate(-688.145 -83.798)"/>
  <path id="Path_349" data-name="Path 349" d="M859.367,8.226a12.485,12.485,0,0,0-2.892-4.354,13.39,13.39,0,0,0-4.637-2.842A17.529,17.529,0,0,0,845.624,0a17.763,17.763,0,0,0-6.2,1.03,13.854,13.854,0,0,0-4.7,2.842,12.1,12.1,0,0,0-2.975,4.354,14.826,14.826,0,0,0-1.047,5.7v2.027h7.046v-1.33a11.725,11.725,0,0,1,.4-3.074,7.586,7.586,0,0,1,1.363-2.742,6.661,6.661,0,0,1,2.476-1.944,9.331,9.331,0,0,1,7.163,0,6.825,6.825,0,0,1,1.379.848,6.321,6.321,0,0,1,1.1,1.113,7.965,7.965,0,0,1,1.346,2.709,11.233,11.233,0,0,1,.432,3.108v1.313h7V13.927A15.476,15.476,0,0,0,859.367,8.226Z" transform="translate(-692.648)" fill="#ef4326"/>
  <path id="Path_350" data-name="Path 350" d="M898.642,152.8v-2.111a.223.223,0,0,0-.133-.233,3.711,3.711,0,0,1-1.762-2.775,3.824,3.824,0,0,1,7.163-2.26,3.781,3.781,0,0,1-1.08,4.869c-.017,0-.017.017-.033.017-.3.116-.349.349-.349.665.017,1.3.017,2.593,0,3.905a1.9,1.9,0,0,1-1.579,1.911,1.923,1.923,0,0,1-2.227-1.562,6.026,6.026,0,0,1-.033-.947C898.642,153.782,898.642,153.283,898.642,152.8Z" transform="translate(-747.694 -119.58)" fill="#ef4326"/>
  <rect id="Rectangle_8" data-name="Rectangle 8" width="12.713" height="2.327" transform="translate(146.528 16.685)"/>
</svg>
