<svg xmlns="http://www.w3.org/2000/svg" width="24.961" height="24.961" viewBox="0 0 24.961 24.961">
  <path id="Path_17445" data-name="Path 17445" d="M12.481,2.219a38.269,38.269,0,0,1,4.992.139,6.432,6.432,0,0,1,2.357.416,4.87,4.87,0,0,1,2.357,2.357A6.432,6.432,0,0,1,22.6,7.488c0,1.248.139,1.664.139,4.992a38.268,38.268,0,0,1-.139,4.992,6.432,6.432,0,0,1-.416,2.357,4.87,4.87,0,0,1-2.357,2.357,6.432,6.432,0,0,1-2.357.416c-1.248,0-1.664.139-4.992.139A38.268,38.268,0,0,1,7.488,22.6a6.432,6.432,0,0,1-2.357-.416A4.87,4.87,0,0,1,2.773,19.83a6.432,6.432,0,0,1-.416-2.357c0-1.248-.139-1.664-.139-4.992a38.268,38.268,0,0,1,.139-4.992,6.432,6.432,0,0,1,.416-2.357,4.981,4.981,0,0,1,.971-1.387,2.345,2.345,0,0,1,1.387-.971,6.432,6.432,0,0,1,2.357-.416,38.268,38.268,0,0,1,4.992-.139m0-2.219A40.974,40.974,0,0,0,7.35.139,8.561,8.561,0,0,0,4.3.693,5.429,5.429,0,0,0,2.08,2.08,5.429,5.429,0,0,0,.693,4.3,6.318,6.318,0,0,0,.139,7.35,40.974,40.974,0,0,0,0,12.481a40.974,40.974,0,0,0,.139,5.131,8.561,8.561,0,0,0,.555,3.051A5.429,5.429,0,0,0,2.08,22.881,5.429,5.429,0,0,0,4.3,24.268a8.561,8.561,0,0,0,3.051.555,40.974,40.974,0,0,0,5.131.139,40.974,40.974,0,0,0,5.131-.139,8.561,8.561,0,0,0,3.051-.555,5.818,5.818,0,0,0,3.606-3.606,8.561,8.561,0,0,0,.555-3.051c0-1.387.139-1.8.139-5.131a40.974,40.974,0,0,0-.139-5.131A8.561,8.561,0,0,0,24.268,4.3,5.429,5.429,0,0,0,22.881,2.08,5.429,5.429,0,0,0,20.662.693,8.561,8.561,0,0,0,17.612.139,40.974,40.974,0,0,0,12.481,0m0,6.1A6.276,6.276,0,0,0,6.1,12.481,6.379,6.379,0,1,0,12.481,6.1m0,10.539a4.086,4.086,0,0,1-4.16-4.16,4.086,4.086,0,0,1,4.16-4.16,4.086,4.086,0,0,1,4.16,4.16,4.086,4.086,0,0,1-4.16,4.16M19.137,4.3a1.525,1.525,0,1,0,1.525,1.525A1.539,1.539,0,0,0,19.137,4.3" fill="#ef4326" fill-rule="evenodd"/>
</svg>
